\relax 
\select@language{indonesian}
\@writefile{toc}{\select@language{indonesian}}
\@writefile{lof}{\select@language{indonesian}}
\@writefile{lot}{\select@language{indonesian}}
\@writefile{toc}{\contentsline {section}{\numberline {1}Deskripsi Persoalan}{1}}
\@writefile{lof}{\contentsline {figure}{\numberline {1}{\ignorespaces Ilustrasi Papan Permainan \textit  {Marble-Rolling-Toy}}}{1}}
\newlabel{img:marble}{{1}{1}}
\@writefile{toc}{\contentsline {section}{\numberline {2}\textit  {Deterministic Finite Automata} (DFA)}{2}}
\@writefile{lot}{\contentsline {table}{\numberline {1}{\ignorespaces Definisi DFA Pada \textit  {Marble Rolling Toy}}}{3}}
\@writefile{lof}{\contentsline {figure}{\numberline {2}{\ignorespaces Diagram DFA Pada \textit  {Marble Rolling Toy}}}{3}}
\@writefile{toc}{\contentsline {section}{\numberline {3}Daftar Asumsi}{4}}
\@writefile{toc}{\contentsline {section}{\numberline {4}File Eksternal}{5}}
\@writefile{lol}{\contentsline {lstlisting}{\numberline {1}File Eksternal Definisi DFA marble.dfa}{5}}
\@writefile{toc}{\contentsline {section}{\numberline {5}\textit  {Source Code}}{7}}
\@writefile{toc}{\contentsline {subsection}{\numberline {5.1}string.h}{7}}
\@writefile{lol}{\contentsline {lstlisting}{src/string.h}{7}}
\@writefile{toc}{\contentsline {subsection}{\numberline {5.2}string.c}{9}}
\@writefile{lol}{\contentsline {lstlisting}{src/string.c}{9}}
\@writefile{toc}{\contentsline {subsection}{\numberline {5.3}integer.h}{12}}
\@writefile{lol}{\contentsline {lstlisting}{src/integer.h}{12}}
\@writefile{toc}{\contentsline {subsection}{\numberline {5.4}main.c}{12}}
\@writefile{lol}{\contentsline {lstlisting}{src/main.c}{12}}
\@writefile{toc}{\contentsline {section}{\numberline {6}\textit  {Testing Program}}{22}}
\@writefile{lol}{\contentsline {lstlisting}{\numberline {2}Menjalankan Program Dengan \textit  {Input String} "AAA"}{22}}
\newlabel{code:test2}{{3}{22}}
\@writefile{lol}{\contentsline {lstlisting}{\numberline {3}Menjalankan Program Dengan \textit  {Input String} Yang Tidak Valid}{22}}
\newlabel{code:test2}{{4}{23}}
\@writefile{lol}{\contentsline {lstlisting}{\numberline {4}Menjalankan Program Dengan \textit  {Input String} "AAB"}{23}}
